.....
----------------------------------------------------------------------
Ran 5 tests in 0.001s

OK
Name               Stmts   Miss Branch BrPart  Cover   Missing
--------------------------------------------------------------
Diplomacy.py          57      0     36      0   100%
TestDiplomacy.py      31      0      0      0   100%
--------------------------------------------------------------
TOTAL                 88      0     36      0   100%
