.........
----------------------------------------------------------------------
Ran 9 tests in 0.001s

OK
Name               Stmts   Miss Branch BrPart  Cover
----------------------------------------------------
Diplomacy.py          91      2     70      4    96%
TestDiplomacy.py      51      1      4      1    96%
----------------------------------------------------
TOTAL                142      3     74      5    96%
