bash: cover: command not found
Name             Stmts   Miss Branch BrPart  Cover   Missing
------------------------------------------------------------
Collatz.py          26      1     10      1    94%   39
TestCollatz.py      72     48      2      0    32%   36-39, 43, 47, 55-59, 64-68, 75-79, 82-131
------------------------------------------------------------
TOTAL               98     49     12      1    53%
