....
----------------------------------------------------------------------
Ran 4 tests in 0.002s

OK
Name               Stmts   Miss Branch BrPart  Cover   Missing
--------------------------------------------------------------
Diplomacy.py          84      4     64      5    94%   57->52, 64, 70, 78->77, 139->127, 141-142
TestDiplomacy.py      26      0      2      1    96%   46->exit
--------------------------------------------------------------
TOTAL                110      4     66      6    94%
