......
----------------------------------------------------------------------
Ran 6 tests in 0.002s

OK
Name               Stmts   Miss Branch BrPart  Cover   Missing
--------------------------------------------------------------
Diplomacy.py          92      7     56      4    93%   56, 70-72, 79-81, 139->133
TestDiplomacy.py      36      0      0      0   100%
--------------------------------------------------------------
TOTAL                128      7     56      4    94%
