...........
----------------------------------------------------------------------
Ran 11 tests in 0.001s

OK
Name               Stmts   Miss Branch BrPart  Cover   Missing
--------------------------------------------------------------
Diplomacy.py         124      9    107     11    89%   32->19, 40->39, 47, 51->50, 58->55, 65->64, 71->70, 86-87, 99-100, 111->110, 138-141
TestDiplomacy.py      61      0      4      1    98%   94->exit
--------------------------------------------------------------
TOTAL                185      9    111     12    91%