.......
----------------------------------------------------------------------
Ran 7 tests in 0.002s

OK
Name               Stmts   Miss Branch BrPart  Cover   Missing
--------------------------------------------------------------
Diplomacy.py          77      0     56      3    98%   36->38, 48->42, 66->60
TestDiplomacy.py      41      0      0      0   100%
--------------------------------------------------------------
TOTAL                118      0     56      3    98%
