.......
----------------------------------------------------------------------
Ran 7 tests in 0.002s

OK
Name               Stmts   Miss Branch BrPart  Cover   Missing
--------------------------------------------------------------
Diplomacy.py          59      0     36      0   100%
TestDiplomacy.py      41      0      0      0   100%
--------------------------------------------------------------
TOTAL                100      0     36      0   100%
