.......
----------------------------------------------------------------------
Ran 7 tests in 0.002s

OK
Name               Stmts   Miss Branch BrPart  Cover   Missing
--------------------------------------------------------------
Diplomacy.py          89      2     59      2    97%   25-26, 78->70, 112->111
TestDiplomacy.py      41      0      0      0   100%
--------------------------------------------------------------
TOTAL                130      2     59      2    98%
