.........
----------------------------------------------------------------------
Ran 9 tests in 0.001s

OK
Name               Stmts   Miss Branch BrPart  Cover   Missing
--------------------------------------------------------------
Diplomacy.py          80      0     38      0   100%
TestDiplomacy.py      58      0      0      0   100%
--------------------------------------------------------------
TOTAL                138      0     38      0   100%
